module payment_orders

go 1.19

require (
	github.com/asaskevich/govalidator v0.0.0-20210307081110-f21760c49a8d
	github.com/google/uuid v1.3.0
	github.com/gorilla/mux v1.8.0
	github.com/joho/godotenv v1.4.0
	github.com/kamva/mgm/v3 v3.4.1
	github.com/monaco-io/request v1.0.15
	github.com/pkg/errors v0.9.1
	github.com/rabbitmq/amqp091-go v1.4.0
	github.com/urfave/negroni v1.0.0
	go.mongodb.org/mongo-driver v1.7.0
)

require (
	github.com/davecgh/go-spew v1.1.1 // indirect
	github.com/go-stack/stack v1.8.0 // indirect
	github.com/golang/snappy v0.0.1 // indirect
	github.com/jinzhu/inflection v1.0.0 // indirect
	github.com/klauspost/compress v1.9.5 // indirect
	github.com/pmezard/go-difflib v1.0.0 // indirect
	github.com/stretchr/testify v1.7.0 // indirect
	github.com/xdg-go/pbkdf2 v1.0.0 // indirect
	github.com/xdg-go/scram v1.0.2 // indirect
	github.com/xdg-go/stringprep v1.0.2 // indirect
	github.com/youmark/pkcs8 v0.0.0-20181117223130-1be2e3e5546d // indirect
	golang.org/x/crypto v0.0.0-20200302210943-78000ba7a073 // indirect
	golang.org/x/sync v0.0.0-20210220032951-036812b2e83c // indirect
	golang.org/x/text v0.3.5 // indirect
	gopkg.in/yaml.v2 v2.4.0 // indirect
	gopkg.in/yaml.v3 v3.0.0-20200313102051-9f266ea9e77c // indirect
)
